//Maya ASCII 2022 scene
//Name: pedestal.ma
//Last modified: Tue, Jul 23, 2024 09:21:39 PM
//Codeset: 1252
requires maya "2022";
requires "stereoCamera" "10.0";
requires "stereoCamera" "10.0";
currentUnit -l centimeter -a degree -t ntsc;
fileInfo "application" "maya";
fileInfo "product" "Maya 2022";
fileInfo "version" "2022";
fileInfo "cutIdentifier" "202405021833-753375ecb3";
fileInfo "osv" "Windows 10 Pro v2009 (Build: 22631)";
fileInfo "UUID" "E1894539-4662-F5E7-528B-59A165A6FB33";
createNode transform -n "Pedestal";
	rename -uid "8413D56B-4142-5E7C-F448-B4A924B95CD0";
	setAttr -l on ".tx";
	setAttr -l on ".ty";
	setAttr -l on ".tz";
	setAttr ".r" -type "double3" -90.00000933466734 0 0 ;
	setAttr -l on ".rx";
	setAttr -l on ".ry";
	setAttr -l on ".rz";
	setAttr ".s" -type "double3" 100 100 100 ;
	setAttr -l on ".sx";
	setAttr -l on ".sy";
	setAttr -l on ".sz";
createNode mesh -n "PedestalShape" -p "Pedestal";
	rename -uid "114BAD57-4EB8-B499-3D40-60909750002D";
	setAttr -k off ".v";
	setAttr ".vir" yes;
	setAttr ".vif" yes;
	setAttr ".uvst[0].uvsn" -type "string" "UVMap";
	setAttr ".cuvs" -type "string" "UVMap";
	setAttr ".dcc" -type "string" "Ambient+Diffuse";
	setAttr ".covm[0]"  0 1 1;
	setAttr ".cdvm[0]"  0 1 1;
	setAttr ".vcs" 2;
createNode mesh -n "PedestalShapeOrig" -p "Pedestal";
	rename -uid "B130BF89-48A7-98B5-176D-658E0E3CA3B1";
	setAttr -k off ".v";
	setAttr ".io" yes;
	setAttr ".vir" yes;
	setAttr ".vif" yes;
	setAttr ".uvst[0].uvsn" -type "string" "UVMap";
	setAttr -s 327 ".uvst[0].uvsp";
	setAttr ".uvst[0].uvsp[0:249]" -type "float2" 0.90625 1 0.21875 0.5 0.25066537
		 0.5 0.18844663 1 0.53771067 0.16206692 0.84375 1 0.83793318 0.46228945 0.78125 1
		 0.93683469 0.5 0.96875 1 0.875 0.5 0.71875 0.5 0.62405336 1 0 1 0.53030342 1 0.12474116
		 0.062537044 0.625 1 0.62433463 0.5 0.83793318 0.037710726 0.0625 1 0.93844658 1 0.78125
		 0.5 0.62499994 0.5 0.28058466 0.5 0.34441537 0.5 0.58752084 0.08752083 0.12594664
		 1 0.87765926 0.058944706 0.5 1 0.4375 1 0.65530342 1 0.5 0.5 0.65625 0.5 0.78030342
		 1 0.56316531 0.5 0.37594664 1 0.0625 0.5 0.21969658 1 0.96875 0.5 0.34469658 1 0.87405342
		 1 0.71780336 1 0.062537014 0.12474117 0.53771079 0.33793318 0.75 1 0.40624997 0.5
		 0.875 1 0.03125 1 0.25094664 1 0.84375 0.5 0.87566537 0.5 0.063446656 1 0.625 0.5
		 0.94105548 0.37765911 0.15625 1 0.78058469 0.5 0.52463502 0.20517209 0.59375 1 0.18816535
		 0.5 0.75 0.5 0.8125 0.5 0.75066543 0.5 0.40625 1 0.024540154 0.24999999 0.49905339
		 1 0.87433469 0.5 0.33627966 0.041702259 0.24905336 1 0.75 0.4797802 0.03125 0.5 0.71875
		 1 0.9375 0.5 0.028872324 0.29398507 0.71875 0.5 0.84280336 1 0.16372019 0.45829764
		 0.40558463 0.5 0.4374631 0.37525871 0.041702271 0.33627978 0.53125 1 0.84441537 0.5
		 0.55894464 0.12234087 0.52021974 0.25 0.59375 0.5 0.28125 1 0.125 1 0.15625 0.5 0.28030342
		 1 0.28125 0.5 0.9797805 0.25 0.34375 0.5 0.84375 1 0.87765932 0.44105542 0.96875
		 1 0.37405336 1 0.94105554 0.12234094 1 1 0.25 1 0.81249994 0.5 0.40719658 1 0.25
		 0.5 0.31344664 1 0.090575762 0.4094241 0.625 1 0.93816537 0.5 0.0625 1 0.375 1 0.90625
		 0.5 0.47545984 0.24999997 0.68816543 0.5 0.37433463 0.5 0.21808463 0.5 0.12566535
		 0.5 0.5 1 0.4375 0.5 0.125 0.5 0.15691534 0.5 0.24999999 0.024540149 0.90691531 0.5
		 0.53058469 0.5 0.1240534 1 0.094415359 0.5 0.1875 0.5 0.3125 0.5 0.34375 1 0.5589447
		 0.37765905 0 1 0.47112763 0.29398507 0.34280336 1 0.9753651 0.294828 0.061834641
		 0.5 0.46780336 1 0.090575822 0.090575792 0.21875 1 0.15625 1 0.09375 0.5 0.59280336
		 1 0.46808463 0.5 0.375 0.5 0.99905336 1 0.81344664 1 0.59375 1 0.9375 1 0.81155342
		 1 0.43655339 1 0.6875 0.5 0.40942419 0.090575822 0.70517218 0.024634903 0.9678033
		 1 0.71808463 0.5 0.91247934 0.087520845 0.09375 1 0.5625 0.5 0.40625 0.5 0.34375
		 0.5 0.71875 1 0.093084663 0.5 0.84308463 0.5 0.37525868 0.43746305 0.46875 1 0.74933469
		 0.5 0.46875 0.5 0.041702278 0.16372022 0.99933463 0.5 0.53125 0.5 0.1875 1 0.125
		 1 0 0.5 0.28125 1 0.21875 0.5 0.092803314 1 0.96228939 0.33793321 0.68655336 1 0.37525877
		 0.062537007 0.96808463 0.5 0.78219664 1 0.061553404 1 0.49933466 0.5 0.52463496 0.29482797
		 0.16372028 0.041702263 0.43746307 0.12474126 0.9365533 1 0.56155336 1 0.875 0.5 0.030303407
		 1 0.43816537 0.5 0.3125 1 0.25 1 0.45829773 0.16372024 0.02887232 0.20601487 0.90719664
		 1 0.094696559 1 0.78125 0.5 0.65691531 0.5 0.50066531 0.5 0.59469664 1 0.375 1 0.65625
		 0.5 0.5 0.5 0.68844658 1 0.0625 0.5 0 0.5 0.20601495 0.028872309 0.59308469 0.5 0.96875
		 0.5 0.70517206 0.47536507 0.31316534 0.5 0.47112763 0.20601489 0.56344664 1 0.34375
		 1 0.6875 1 0.58752084 0.41247919 0.84375 0.5 0.625 0.5 1 1 0.21875 1 0.5625 1 0.31155339
		 1 0.87594664 1 0.1553034 1 0.9375 1 0.20601486 0.47112763 0.75 0.5 0.43844664 1 0.8125
		 1 0.8125 0.5 0.91247904 0.41247925 0.37566537 0.5 0.21780334 1 0.09375 1 0.40691534
		 0.5 1 0.5 0.03125 0.5 0.9375 0.5 0.6223408 0.4410553 0.53219664 1 0.46875 1 0.65625
		 1 0.18655336 1 0.59375 0.5 0.53191543 0.5 0.00066535419 0.5 0.90625 1 0.1875 1 0.030584669
		 0.5 0.15625 0.5 0.28125 0.5 0.74905336 1 0.62566537 0.5 0.12474125 0.43746307;
	setAttr ".uvst[0].uvsp[250:326]" 0.65719664 1 0.43683463 0.5 0.78125 1 0.97536516
		 0.20517206 0.2819154 0.5 0.062536933 0.37525862 0.90530342 1 0.78191543 0.5 0.31183463
		 0.5 0.3125 1 0.15558465 0.5 0.74999994 0.020219751 0.40942419 0.40942419 0.25 0.5
		 0.031915367 0.5 0.29398504 0.028872307 1 0.5 0.71941531 0.5 0.71969652 1 0.68683463
		 0.5 0.84469652 1 0.66206694 0.037710726 0.90625 0.5 0.4375 1 0.96941531 0.5 0.75094664
		 1 0.4375 0.5 0.62234098 0.058944739 0.24933465 0.5 0.28219667 1 0.125 0.5 0.032196648
		 1 0.40530336 1 0.1875 0.5 0.59441537 0.5 0.794828 0.47536513 0.81183463 0.5 0.62594664
		 1 0.3125 0.5 0.24999997 0.47545975 0.75 1 0.56183463 0.5 0.6875 1 0.875 1 0.03125
		 1 0.45829776 0.33627981 0.81316531 0.5 0.12433465 0.5 0.09375 0.5 0.5625 1 0.0009466242
		 1 0.063165329 0.5 0.375 0.5 0.66206688 0.46228933 0.29398507 0.47112763 0.50094664
		 1 0.21941534 0.5 0.8125 1 0.6875 0.5 0.65558463 0.5 0.96228945 0.16206694 0.34308466
		 0.5 0.18683466 0.5 0.40625 1 0.33627972 0.45829767 0.46941534 0.5 0.90558463 0.5
		 0.5625 0.5 0.40625 0.5 0.96969658 1 0.65625 1 0.46969661 1 0.46875 0.5 0.15719664
		 1 0.53125 1 0.79482788 0.024634907 0.53125 0.5;
	setAttr ".cuvs" -type "string" "UVMap";
	setAttr ".dcc" -type "string" "Ambient+Diffuse";
	setAttr ".covm[0]"  0 1 1;
	setAttr ".cdvm[0]"  0 1 1;
	setAttr -s 192 ".vt";
	setAttr ".vt[0:165]"  3.0895517e-08 0.25420532 0.048658837 3.2545124e-08 0.15894203 0.19395347
		 0.049593054 0.24932083 0.048658837 0.031008093 0.15588802 0.19395347 0.097280242 0.23485509 0.048658837
		 0.060824573 0.1468433 0.19395347 0.14122893 0.211364 0.048658837 0.088303544 0.13215549 0.19395347
		 0.17975047 0.17975032 0.048658837 0.1123891 0.11238903 0.19395347 0.21136415 0.14122893 0.048658837
		 0.13215557 0.088303462 0.19395347 0.23485523 0.09728016 0.048658837 0.14684345 0.060824495 0.19395347
		 0.24932098 0.049592979 0.048658837 0.15588817 0.031008037 0.19395347 0.25420547 -5.7277386e-08 0.048658837
		 0.15894218 -5.4750203e-08 0.19395347 0.24932098 -0.049593054 0.048658837 0.15588817 -0.031008113 0.19395347
		 0.23485523 -0.097280242 0.048658837 0.14684345 -0.060824573 0.19395347 0.21136415 -0.14122893 0.048658837
		 0.13215557 -0.088303544 0.19395347 0.17975047 -0.17975047 0.048658837 0.1123891 -0.1123891 0.19395347
		 0.14122893 -0.21136415 0.048658837 0.088303544 -0.13215564 0.19395347 0.097280242 -0.23485523 0.048658837
		 0.060824573 -0.14684345 0.19395347 0.049593054 -0.24932098 0.048658837 0.031008093 -0.15588817 0.19395347
		 8.6721643e-09 -0.25420547 0.048658837 1.864996e-08 -0.15894218 0.19395347 -0.049592979 -0.24932098 0.048658837
		 -0.031008037 -0.15588817 0.19395347 -0.09728016 -0.23485523 0.048658837 -0.060824495 -0.14684345 0.19395347
		 -0.14122893 -0.21136415 0.048658837 -0.088303462 -0.13215557 0.19395347 -0.17975032 -0.17975047 0.048658837
		 -0.11238903 -0.1123891 0.19395347 -0.211364 -0.14122909 0.048658837 -0.13215549 -0.088303618 0.19395347
		 -0.23485509 -0.097280316 0.048658837 -0.1468433 -0.06082461 0.19395347 -0.24932083 -0.049593095 0.048658837
		 -0.15588802 -0.031008132 0.19395347 -0.25420532 -4.3134349e-08 0.048658837 -0.15894218 -4.590725e-08 0.19395347
		 -0.24932083 0.049592979 0.048658837 -0.15588802 0.031008037 0.19395347 -0.23485509 0.097280242 0.048658837
		 -0.1468433 0.060824495 0.19395347 -0.21136415 0.14122893 0.048658837 -0.13215557 0.088303462 0.19395347
		 -0.17975032 0.17975032 0.048658837 -0.11238903 0.11238903 0.19395347 -0.14122893 0.211364 0.048658837
		 -0.088303462 0.13215549 0.19395347 -0.09728016 0.23485509 0.048658837 -0.060824495 0.1468433 0.19395347
		 -0.049592979 0.24932083 0.048658837 -0.031008037 0.15588802 0.19395347 3.3346584e-08 0.16631536 0.20803806
		 3.3677296e-08 0.15531604 0.21416883 0.030300731 0.15233174 0.21416883 0.032446552 0.16311969 0.20803806
		 0.059436969 0.14349337 0.21416883 0.063646182 0.15365539 0.20803806 0.086289026 0.12914059 0.21416883
		 0.09239991 0.13828614 0.20803806 0.10982504 0.10982504 0.21416883 0.11760277 0.1176027 0.20803806
		 0.12914066 0.086288877 0.21416883 0.13828622 0.092399836 0.20803806 0.14349337 0.059436854 0.21416883
		 0.15365539 0.063646108 0.20803806 0.15233174 0.030300654 0.21416883 0.16311969 0.032446474 0.20803806
		 0.15531619 -5.4096745e-08 0.21416883 0.16631551 -5.4868124e-08 0.20803806 0.15233174 -0.030300749 0.21416883
		 0.16311969 -0.032446571 0.20803806 0.14349337 -0.059436969 0.21416883 0.15365539 -0.063646182 0.20803806
		 0.12914066 -0.086289026 0.21416883 0.13828622 -0.09239991 0.20803806 0.10982511 -0.10982511 0.21416883
		 0.11760277 -0.11760277 0.20803806 0.086289026 -0.12914066 0.21416883 0.09239991 -0.13828622 0.20803806
		 0.059436891 -0.14349337 0.21416883 0.063646182 -0.15365539 0.20803806 0.030300712 -0.15233174 0.21416883
		 0.032446552 -0.16311969 0.20803806 2.0064325e-08 -0.15531619 0.21416883 1.8806832e-08 -0.16631551 0.20803806
		 -0.030300636 -0.15233174 0.21416883 -0.032446474 -0.16311969 0.20803806 -0.059436817 -0.14349337 0.21416883
		 -0.063646108 -0.15365539 0.20803806 -0.086289026 -0.12914066 0.21416883 -0.092399836 -0.13828622 0.20803806
		 -0.10982504 -0.10982511 0.21416883 -0.1176027 -0.11760277 0.20803806 -0.12914051 -0.086289026 0.21416883
		 -0.13828614 -0.092399985 0.20803806 -0.14349337 -0.059436969 0.21416883 -0.15365539 -0.06364622 0.20803806
		 -0.15233174 -0.030300768 0.21416883 -0.16311969 -0.032446589 0.20803806 -0.15531604 -4.5633033e-08 0.21416883
		 -0.16631536 -4.5614954e-08 0.20803806 -0.15233174 0.030300673 0.21416883 -0.16311969 0.032446492 0.20803806
		 -0.14349337 0.059436891 0.21416883 -0.15365539 0.063646145 0.20803806 -0.12914059 0.086288877 0.21416883
		 -0.13828614 0.092399836 0.20803806 -0.10982504 0.10982496 0.21416883 -0.1176027 0.1176027 0.20803806
		 -0.086288877 0.12914059 0.21416883 -0.092399836 0.13828614 0.20803806 -0.059436891 0.14349337 0.21416883
		 -0.063646108 0.15365539 0.20803806 -0.030300654 0.15233174 0.21416883 -0.032446474 0.16311969 0.20803806
		 2.8401528e-08 0.23839188 0 3.0895517e-08 0.25420532 0.010361022 0.049593054 0.24932083 0.010361022
		 0.046508029 0.23381127 0 0.097280242 0.23485509 0.010361022 0.091228664 0.22024536 0
		 0.14122893 0.211364 0.010361022 0.13244353 0.1982156 0 0.17975047 0.17975032 0.010361022
		 0.1685686 0.1685686 0 0.21136415 0.14122893 0.010361022 0.19821575 0.13244346 0 0.23485523 0.09728016 0.010361022
		 0.22024551 0.091228597 0 0.24932098 0.049592979 0.010361022 0.23381129 0.046507921 0
		 0.25420547 -5.7277386e-08 0.010361022 0.23839203 -5.6606339e-08 0 0.24932098 -0.049593054 0.010361022
		 0.23381129 -0.046508037 0 0.23485523 -0.097280242 0.010361022 0.22024551 -0.091228656 0
		 0.21136415 -0.14122893 0.010361022 0.19821575 -0.13244353 0 0.17975047 -0.17975047 0.010361022
		 0.1685686 -0.1685686 0 0.14122893 -0.21136415 0.010361022 0.13244353 -0.19821575 0
		 0.097280242 -0.23485523 0.010361022 0.091228664 -0.22024551 0 0.049593054 -0.24932098 0.010361022
		 0.046507992 -0.23381142 0 8.6721643e-09 -0.25420547 0.010361022 1.06616e-08 -0.23839203 0
		 -0.049592979 -0.24932098 0.010361022 -0.046507925 -0.23381142 0 -0.09728016 -0.23485523 0.010361022
		 -0.091228589 -0.22024551 0;
	setAttr ".vt[166:191]" -0.14122893 -0.21136415 0.010361022 -0.13244346 -0.19821575 0
		 -0.17975032 -0.17975047 0.010361022 -0.16856845 -0.1685686 0 -0.211364 -0.14122909 0.010361022
		 -0.1982156 -0.13244361 0 -0.23485509 -0.097280316 0.010361022 -0.22024536 -0.091228656 0
		 -0.24932083 -0.049593095 0.010361022 -0.23381127 -0.046508074 0 -0.25420532 -4.3134349e-08 0.010361022
		 -0.23839188 -4.3272408e-08 0 -0.24932083 0.049592979 0.010361022 -0.23381127 0.046507958 0
		 -0.23485509 0.097280242 0.010361022 -0.22024536 0.091228679 0 -0.21136415 0.14122893 0.010361022
		 -0.1982156 0.13244338 0 -0.17975032 0.17975032 0.010361022 -0.1685686 0.16856845 0
		 -0.14122893 0.211364 0.010361022 -0.13244346 0.1982156 0 -0.09728016 0.23485509 0.010361022
		 -0.091228589 0.22024551 0 -0.049592979 0.24932083 0.010361022 -0.046507925 0.23381127 0;
	setAttr -s 352 ".ed";
	setAttr ".ed[0:165]"  0 1 0 1 3 0 3 2 0 2 0 0 3 5 0 5 4 0 4 2 0 5 7 0 7 6 0
		 6 4 0 7 9 0 9 8 0 8 6 0 9 11 0 11 10 0 10 8 0 11 13 0 13 12 0 12 10 0 13 15 0 15 14 0
		 14 12 0 15 17 0 17 16 0 16 14 0 17 19 0 19 18 0 18 16 0 19 21 0 21 20 0 20 18 0 21 23 0
		 23 22 0 22 20 0 23 25 0 25 24 0 24 22 0 25 27 0 27 26 0 26 24 0 27 29 0 29 28 0 28 26 0
		 29 31 0 31 30 0 30 28 0 31 33 0 33 32 0 32 30 0 33 35 0 35 34 0 34 32 0 35 37 0 37 36 0
		 36 34 0 37 39 0 39 38 0 38 36 0 39 41 0 41 40 0 40 38 0 41 43 0 43 42 0 42 40 0 43 45 0
		 45 44 0 44 42 0 45 47 0 47 46 0 46 44 0 47 49 0 49 48 0 48 46 0 49 51 0 51 50 0 50 48 0
		 51 53 0 53 52 0 52 50 0 53 55 0 55 54 0 54 52 0 55 57 0 57 56 0 56 54 0 57 59 0 59 58 0
		 58 56 0 59 61 0 61 60 0 60 58 0 21 85 0 85 87 0 87 23 0 61 63 0 63 62 0 62 60 0 63 1 0
		 0 62 0 58 186 0 186 184 0 184 56 0 0 129 0 129 190 0 190 62 0 14 142 0 142 140 0
		 140 12 0 32 160 0 160 158 0 158 30 0 50 178 0 178 176 0 176 48 0 6 134 0 134 132 0
		 132 4 0 24 152 0 152 150 0 150 22 0 42 170 0 170 168 0 168 40 0 60 188 0 188 186 0
		 16 144 0 144 142 0 34 162 0 162 160 0 52 180 0 180 178 0 8 136 0 136 134 0 26 154 0
		 154 152 0 44 172 0 172 170 0 190 188 0 18 146 0 146 144 0 36 164 0 164 162 0 54 182 0
		 182 180 0 10 138 0 138 136 0 28 156 0 156 154 0 46 174 0 174 172 0 20 148 0 148 146 0
		 38 166 0 166 164 0 184 182 0 140 138 0 158 156 0 176 174 0 128 131 0 131 133 0 133 135 0
		 135 137 0 137 139 0 139 141 0 141 143 0 143 145 0;
	setAttr ".ed[166:331]" 145 147 0 147 149 0 149 151 0 151 153 0 153 155 0 155 157 0
		 157 159 0 159 161 0 161 163 0 163 165 0 165 167 0 167 169 0 169 171 0 171 173 0 173 175 0
		 175 177 0 177 179 0 179 181 0 181 183 0 183 185 0 185 187 0 187 189 0 189 191 0 191 128 0
		 132 130 0 130 2 0 150 148 0 168 166 0 63 127 0 127 64 0 64 1 0 39 103 0 103 105 0
		 105 41 0 57 121 0 121 123 0 123 59 0 13 77 0 77 79 0 79 15 0 31 95 0 95 97 0 97 33 0
		 49 113 0 113 115 0 115 51 0 5 69 0 69 71 0 71 7 0 87 89 0 89 25 0 105 107 0 107 43 0
		 123 125 0 125 61 0 79 81 0 81 17 0 97 99 0 99 35 0 115 117 0 117 53 0 71 73 0 73 9 0
		 89 91 0 91 27 0 107 109 0 109 45 0 125 127 0 81 83 0 83 19 0 99 101 0 101 37 0 117 119 0
		 119 55 0 73 75 0 75 11 0 91 93 0 93 29 0 109 111 0 111 47 0 83 85 0 101 103 0 119 121 0
		 75 77 0 93 95 0 111 113 0 66 65 0 65 126 0 126 124 0 124 122 0 122 120 0 120 118 0
		 118 116 0 116 114 0 114 112 0 112 110 0 110 108 0 108 106 0 106 104 0 104 102 0 102 100 0
		 100 98 0 98 96 0 96 94 0 94 92 0 92 90 0 90 88 0 88 86 0 86 84 0 84 82 0 82 80 0
		 80 78 0 78 76 0 76 74 0 74 72 0 72 70 0 70 68 0 68 66 0 3 67 0 67 69 0 67 64 0 64 65 0
		 66 67 0 68 69 0 70 71 0 72 73 0 74 75 0 76 77 0 78 79 0 80 81 0 82 83 0 84 85 0 86 87 0
		 88 89 0 90 91 0 92 93 0 94 95 0 96 97 0 98 99 0 100 101 0 102 103 0 104 105 0 106 107 0
		 108 109 0 110 111 0 112 113 0 114 115 0 116 117 0 118 119 0 120 121 0 122 123 0 124 125 0
		 126 127 0 129 130 0 130 131 0 128 129 0 132 133 0 134 135 0 136 137 0 138 139 0 140 141 0
		 142 143 0 144 145 0 146 147 0 148 149 0 150 151 0;
	setAttr ".ed[332:351]" 152 153 0 154 155 0 156 157 0 158 159 0 160 161 0 162 163 0
		 164 165 0 166 167 0 168 169 0 170 171 0 172 173 0 174 175 0 176 177 0 178 179 0 180 181 0
		 182 183 0 184 185 0 186 187 0 188 189 0 190 191 0;
	setAttr -s 704 ".n";
	setAttr ".n[0:165]" -type "float3"  0.082087658 0.83345342 0.54645866 0.082087658
		 0.83345342 0.54645866 0.082087658 0.83345342 0.54645866 0.082087658 0.83345342 0.54645866
		 0.24310938 0.80142432 0.5464586 0.24310938 0.80142432 0.5464586 0.24310938 0.80142432
		 0.5464586 0.24310938 0.80142432 0.5464586 0.39478832 0.73859686 0.54645842 0.39478832
		 0.73859686 0.54645842 0.39478832 0.73859686 0.54645842 0.39478832 0.73859686 0.54645842
		 0.53129435 0.64738643 0.54645866 0.53129435 0.64738643 0.54645866 0.53129435 0.64738643
		 0.54645866 0.53129435 0.64738643 0.54645866 0.64738572 0.53129506 0.5464589 0.64738572
		 0.53129506 0.5464589 0.64738572 0.53129506 0.5464589 0.64738572 0.53129506 0.5464589
		 0.73859668 0.39478835 0.54645866 0.73859668 0.39478835 0.54645866 0.73859668 0.39478835
		 0.54645866 0.73859668 0.39478835 0.54645866 0.80142432 0.24310945 0.5464586 0.80142432
		 0.24310945 0.5464586 0.80142432 0.24310945 0.5464586 0.80142432 0.24310945 0.5464586
		 0.83345348 0.082087755 0.5464586 0.83345348 0.082087755 0.5464586 0.83345348 0.082087755
		 0.5464586 0.83345348 0.082087755 0.5464586 0.83345342 -0.08208783 0.5464586 0.83345342
		 -0.08208783 0.5464586 0.83345342 -0.08208783 0.5464586 0.83345342 -0.08208783 0.5464586
		 0.80142426 -0.24310942 0.54645854 0.80142426 -0.24310942 0.54645854 0.80142426 -0.24310942
		 0.54645854 0.80142426 -0.24310942 0.54645854 0.73859644 -0.39478871 0.54645878 0.73859644
		 -0.39478871 0.54645878 0.73859644 -0.39478871 0.54645878 0.73859644 -0.39478871 0.54645878
		 0.64738643 -0.53129435 0.54645878 0.64738643 -0.53129435 0.54645878 0.64738643 -0.53129435
		 0.54645878 0.64738643 -0.53129435 0.54645878 0.53129476 -0.64738607 0.54645866 0.53129476
		 -0.64738607 0.54645866 0.53129476 -0.64738607 0.54645866 0.53129476 -0.64738607 0.54645866
		 0.39478832 -0.73859686 0.54645842 0.39478832 -0.73859686 0.54645842 0.39478832 -0.73859686
		 0.54645842 0.39478832 -0.73859686 0.54645842 0.24310935 -0.80142421 0.54645866 0.24310935
		 -0.80142421 0.54645866 0.24310935 -0.80142421 0.54645866 0.24310935 -0.80142421 0.54645866
		 0.082087629 -0.83345348 0.54645854 0.082087629 -0.83345348 0.54645854 0.082087629
		 -0.83345348 0.54645854 0.082087629 -0.83345348 0.54645854 -0.082087703 -0.83345342
		 0.54645854 -0.082087703 -0.83345342 0.54645854 -0.082087703 -0.83345342 0.54645854
		 -0.082087703 -0.83345342 0.54645854 -0.24310942 -0.80142426 0.5464586 -0.24310942
		 -0.80142426 0.5464586 -0.24310942 -0.80142426 0.5464586 -0.24310942 -0.80142426 0.5464586
		 -0.39478859 -0.73859668 0.54645848 -0.39478859 -0.73859668 0.54645848 -0.39478859
		 -0.73859668 0.54645848 -0.39478859 -0.73859668 0.54645848 -0.53129506 -0.64738572
		 0.5464589 -0.53129506 -0.64738572 0.5464589 -0.53129506 -0.64738572 0.5464589 -0.53129506
		 -0.64738572 0.5464589 -0.64738536 -0.53129578 0.54645872 -0.64738536 -0.53129578
		 0.54645872 -0.64738536 -0.53129578 0.54645872 -0.64738536 -0.53129578 0.54645872
		 -0.73859721 -0.39478734 0.54645872 -0.73859721 -0.39478734 0.54645872 -0.73859721
		 -0.39478734 0.54645872 -0.73859721 -0.39478734 0.54645872 -0.80142426 -0.24310948
		 0.54645848 -0.80142426 -0.24310948 0.54645848 -0.80142426 -0.24310948 0.54645848
		 -0.80142426 -0.24310948 0.54645848 -0.83345342 -0.082089335 0.54645824 -0.83345342
		 -0.082089335 0.54645824 -0.83345342 -0.082089335 0.54645824 -0.83345342 -0.082089335
		 0.54645824 -0.83345342 0.082089365 0.54645824 -0.83345342 0.082089365 0.54645824
		 -0.83345342 0.082089365 0.54645824 -0.83345342 0.082089365 0.54645824 -0.80142426
		 0.24310943 0.54645848 -0.80142426 0.24310943 0.54645848 -0.80142426 0.24310943 0.54645848
		 -0.80142426 0.24310943 0.54645848 -0.73859769 0.39478624 0.5464589 -0.73859769 0.39478624
		 0.5464589 -0.73859769 0.39478624 0.5464589 -0.73859769 0.39478624 0.5464589 -0.6473847
		 0.53129655 0.5464586 -0.6473847 0.53129655 0.5464586 -0.6473847 0.53129655 0.5464586
		 -0.6473847 0.53129655 0.5464586 -0.53129518 0.64738584 0.54645872 -0.53129518 0.64738584
		 0.54645872 -0.53129518 0.64738584 0.54645872 -0.53129518 0.64738584 0.54645872 -0.394788
		 0.73859704 0.54645842 -0.394788 0.73859704 0.54645842 -0.394788 0.73859704 0.54645842
		 -0.394788 0.73859704 0.54645842 0.78214246 -0.41806459 -0.46203354 0.78214246 -0.41806459
		 -0.46203354 0.78214246 -0.41806459 -0.46203354 0.78214246 -0.41806459 -0.46203354
		 -0.24310942 0.80142426 0.54645854 -0.24310942 0.80142426 0.54645854 -0.24310942 0.80142426
		 0.54645854 -0.24310942 0.80142426 0.54645854 -0.082087658 0.83345336 0.54645854 -0.082087658
		 0.83345336 0.54645854 -0.082087658 0.83345336 0.54645854 -0.082087658 0.83345336
		 0.54645854 -0.63439316 0.77301061 0 -0.63439316 0.77301061 0 -0.63439316 0.77301061
		 0 -0.63439316 0.77301061 0 -0.098017059 0.99518466 0 -0.098017059 0.99518466 0 -0.098017059
		 0.99518466 0 -0.098017059 0.99518466 0 0.95694035 0.29028469 0 0.95694035 0.29028469
		 0 0.95694035 0.29028469 0 0.95694035 0.29028469 0 0.098017 -0.99518478 0 0.098017
		 -0.99518478 0 0.098017 -0.99518478 0 0.098017 -0.99518478 0 -0.99518472 0.098017298
		 0 -0.99518472 0.098017298 0 -0.99518472 0.098017298 0 -0.99518472 0.098017298 0 0.47139704
		 0.88192105 0 0.47139704 0.88192105 0 0.47139704 0.88192105 0 0.47139704 0.88192105
		 0 0.7730118 -0.63439167 0 0.7730118 -0.63439167 0 0.7730118 -0.63439167 0 0.7730118
		 -0.63439167 0 -0.77301055 -0.63439327 0 -0.77301055 -0.63439327 0 -0.77301055 -0.63439327
		 0 -0.77301055 -0.63439327 0 -0.47139639 0.88192141 0 -0.47139639 0.88192141 0;
	setAttr ".n[166:331]" -type "float3"  -0.47139639 0.88192141 0 -0.47139639
		 0.88192141 0 0.99518478 0.098016784 0 0.99518478 0.098016784 0 0.99518478 0.098016784
		 0 0.99518478 0.098016784 0 -0.098017104 -0.99518472 0 -0.098017104 -0.99518472 0
		 -0.098017104 -0.99518472 0 -0.098017104 -0.99518472 0 -0.95694047 0.29028422 0 -0.95694047
		 0.29028422 0 -0.95694047 0.29028422 0 -0.95694047 0.29028422 0 0.63439173 0.7730118
		 0 0.63439173 0.7730118 0 0.63439173 0.7730118 0 0.63439173 0.7730118 0 0.63439173
		 -0.7730118 0 0.63439173 -0.7730118 0 0.63439173 -0.7730118 0 0.63439173 -0.7730118
		 0 -0.88192159 -0.47139609 0 -0.88192159 -0.47139609 0 -0.88192159 -0.47139609 0 -0.88192159
		 -0.47139609 0 -0.29028472 0.95694029 0 -0.29028472 0.95694029 0 -0.29028472 0.95694029
		 0 -0.29028472 0.95694029 0 0.99518478 -0.098016866 0 0.99518478 -0.098016866 0 0.99518478
		 -0.098016866 0 0.99518478 -0.098016866 0 -0.29028472 -0.95694029 0 -0.29028472 -0.95694029
		 0 -0.29028472 -0.95694029 0 -0.29028472 -0.95694029 0 -0.88192242 0.4713946 0 -0.88192242
		 0.4713946 0 -0.88192242 0.4713946 0 -0.88192242 0.4713946 0 0.77301061 0.6343931
		 0 0.77301061 0.6343931 0 0.77301061 0.6343931 0 0.77301061 0.6343931 0 0.47139704
		 -0.88192105 0 0.47139704 -0.88192105 0 0.47139704 -0.88192105 0 0.47139704 -0.88192105
		 0 -0.95694041 -0.29028445 0 -0.95694041 -0.29028445 0 -0.95694041 -0.29028445 0 -0.95694041
		 -0.29028445 0 0.95694035 -0.29028466 0 0.95694035 -0.29028466 0 0.95694035 -0.29028466
		 0 0.95694035 -0.29028466 0 -0.47139639 -0.88192141 0 -0.47139639 -0.88192141 0 -0.47139639
		 -0.88192141 0 -0.47139639 -0.88192141 0 -0.77300924 0.63439488 0 -0.77300924 0.63439488
		 0 -0.77300924 0.63439488 0 -0.77300924 0.63439488 0 0.88192135 0.4713966 0 0.88192135
		 0.4713966 0 0.88192135 0.4713966 0 0.88192135 0.4713966 0 0.29028469 -0.95694035
		 0 0.29028469 -0.95694035 0 0.29028469 -0.95694035 0 0.29028469 -0.95694035 0 -0.99518472
		 -0.098017238 0 -0.99518472 -0.098017238 0 -0.99518472 -0.098017238 0 -0.99518472
		 -0.098017238 0 0 0 -1 0 0 -1 0 0 -1 0 0 -1 0 0 -1 0 0 -1 0 0 -1 0 0 -1 0 0 -1 0 0
		 -1 0 0 -1 0 0 -1 0 0 -1 0 0 -1 0 0 -1 0 0 -1 0 0 -1 0 0 -1 0 0 -1 0 0 -1 0 0 -1 0
		 0 -1 0 0 -1 0 0 -1 0 0 -1 0 0 -1 0 0 -1 0 0 -1 0 0 -1 0 0 -1 0 0 -1 0 0 -1 0.29028469
		 0.95694035 0 0.29028469 0.95694035 0 0.29028469 0.95694035 0 0.29028469 0.95694035
		 0 0.88192099 -0.47139725 0 0.88192099 -0.47139725 0 0.88192099 -0.47139725 0 0.88192099
		 -0.47139725 0 -0.63439316 -0.77301061 0 -0.63439316 -0.77301061 0 -0.63439316 -0.77301061
		 0 -0.63439316 -0.77301061 0 -0.086926892 0.88258958 -0.46203831 -0.086926892 0.88258958
		 -0.46203831 -0.086926892 0.88258958 -0.46203831 -0.086926892 0.88258958 -0.46203831
		 -0.56261814 -0.68555415 -0.46203503 -0.56261814 -0.68555415 -0.46203503 -0.56261814
		 -0.68555415 -0.46203503 -0.56261814 -0.68555415 -0.46203503 -0.56261796 0.68555397
		 -0.46203539 -0.56261796 0.68555397 -0.46203539 -0.56261796 0.68555397 -0.46203539
		 -0.56261796 0.68555397 -0.46203539 0.84867543 0.25744271 -0.46203166 0.84867543 0.25744271
		 -0.46203166 0.84867543 0.25744271 -0.46203166 0.84867543 0.25744271 -0.46203166 0.08692918
		 -0.88259101 -0.46203518 0.08692918 -0.88259101 -0.46203518 0.08692918 -0.88259101
		 -0.46203518 0.08692918 -0.88259101 -0.46203518 -0.88259077 0.086928986 -0.46203551
		 -0.88259077 0.086928986 -0.46203551 -0.88259077 0.086928986 -0.46203551 -0.88259077
		 0.086928986 -0.46203551 0.41806394 0.78214109 -0.46203676 0.41806394 0.78214109 -0.46203676
		 0.41806394 0.78214109 -0.46203676 0.41806394 0.78214109 -0.46203676 0.68555421 -0.5626182
		 -0.46203491 0.68555421 -0.5626182 -0.46203491 0.68555421 -0.5626182 -0.46203491 0.68555421
		 -0.5626182 -0.46203491 -0.68555313 -0.56261933 -0.462035 -0.68555313 -0.56261933
		 -0.462035 -0.68555313 -0.56261933 -0.462035 -0.68555313 -0.56261933 -0.462035 -0.41806361
		 0.78214115 -0.46203691 -0.41806361 0.78214115 -0.46203691 -0.41806361 0.78214115
		 -0.46203691 -0.41806361 0.78214115 -0.46203691 0.88259119 0.086928852 -0.4620347
		 0.88259119 0.086928852 -0.4620347 0.88259119 0.086928852 -0.4620347 0.88259119 0.086928852
		 -0.4620347;
	setAttr ".n[332:497]" -type "float3"  -0.086929157 -0.88259113 -0.46203473
		 -0.086929157 -0.88259113 -0.46203473 -0.086929157 -0.88259113 -0.46203473 -0.086929157
		 -0.88259113 -0.46203473 -0.84867162 0.25744155 -0.46203926 -0.84867162 0.25744155
		 -0.46203926 -0.84867162 0.25744155 -0.46203926 -0.84867162 0.25744155 -0.46203926
		 0.56261814 0.68555391 -0.46203551 0.56261814 0.68555391 -0.46203551 0.56261814 0.68555391
		 -0.46203551 0.56261814 0.68555391 -0.46203551 0.56261927 -0.68555421 -0.46203339
		 0.56261927 -0.68555421 -0.46203339 0.56261927 -0.68555421 -0.46203339 0.56261927
		 -0.68555421 -0.46203339 -0.78214109 -0.41806316 -0.46203724 -0.78214109 -0.41806316
		 -0.46203724 -0.78214109 -0.41806316 -0.46203724 -0.78214109 -0.41806316 -0.46203724
		 -0.25744152 0.84867197 -0.46203879 -0.25744152 0.84867197 -0.46203879 -0.25744152
		 0.84867197 -0.46203879 -0.25744152 0.84867197 -0.46203879 0.88259077 -0.086929083
		 -0.46203569 0.88259077 -0.086929083 -0.46203569 0.88259077 -0.086929083 -0.46203569
		 0.88259077 -0.086929083 -0.46203569 -0.25744262 -0.84867555 -0.46203151 -0.25744262
		 -0.84867555 -0.46203151 -0.25744262 -0.84867555 -0.46203151 -0.25744262 -0.84867555
		 -0.46203151 -0.78214163 0.41806352 -0.4620361 -0.78214163 0.41806352 -0.4620361 -0.78214163
		 0.41806352 -0.4620361 -0.78214163 0.41806352 -0.4620361 0.68555421 0.5626182 -0.46203491
		 0.68555421 0.5626182 -0.46203491 0.68555421 0.5626182 -0.46203491 0.68555421 0.5626182
		 -0.46203491 0.41806385 -0.78214353 -0.46203268 0.41806385 -0.78214353 -0.46203268
		 0.41806385 -0.78214353 -0.46203268 0.41806385 -0.78214353 -0.46203268 -0.84867179
		 -0.25744161 -0.46203896 -0.84867179 -0.25744161 -0.46203896 -0.84867179 -0.25744161
		 -0.46203896 -0.84867179 -0.25744161 -0.46203896 0.84867543 -0.25744271 -0.46203166
		 0.84867543 -0.25744271 -0.46203166 0.84867543 -0.25744271 -0.46203166 0.84867543
		 -0.25744271 -0.46203166 -0.41806507 -0.78214216 -0.46203384 -0.41806507 -0.78214216
		 -0.46203384 -0.41806507 -0.78214216 -0.46203384 -0.41806507 -0.78214216 -0.46203384
		 -0.68555409 0.56261951 -0.46203348 -0.68555409 0.56261951 -0.46203348 -0.68555409
		 0.56261951 -0.46203348 -0.68555409 0.56261951 -0.46203348 0.7821421 0.41806486 -0.46203396
		 0.7821421 0.41806486 -0.46203396 0.7821421 0.41806486 -0.46203396 0.7821421 0.41806486
		 -0.46203396 0.25744224 -0.84867531 -0.4620322 0.25744224 -0.84867531 -0.4620322 0.25744224
		 -0.84867531 -0.4620322 0.25744224 -0.84867531 -0.4620322 -0.88259101 -0.086928919
		 -0.46203518 -0.88259101 -0.086928919 -0.46203518 -0.88259101 -0.086928919 -0.46203518
		 -0.88259101 -0.086928919 -0.46203518 -1.5460429e-08 0 1 -1.5460429e-08 0 1 -1.5460429e-08
		 0 1 -1.5460429e-08 0 1 -1.5460429e-08 0 1 -1.5460429e-08 0 1 -1.5460429e-08 0 1 -1.5460429e-08
		 0 1 -1.5460429e-08 0 1 -1.5460429e-08 0 1 -1.5460429e-08 0 1 -1.5460429e-08 0 1 -1.5460429e-08
		 0 1 -1.5460429e-08 0 1 -1.5460429e-08 0 1 -1.5460429e-08 0 1 -1.5460429e-08 0 1 -1.5460429e-08
		 0 1 -1.5460429e-08 0 1 -1.5460429e-08 0 1 -1.5460429e-08 0 1 -1.5460429e-08 0 1 -1.5460429e-08
		 0 1 -1.5460429e-08 0 1 -1.5460429e-08 0 1 -1.5460429e-08 0 1 -1.5460429e-08 0 1 -1.5460429e-08
		 0 1 -1.5460429e-08 0 1 -1.5460429e-08 0 1 -1.5460429e-08 0 1 -1.5460429e-08 0 1 0.25744146
		 0.84867197 -0.46203867 0.25744146 0.84867197 -0.46203867 0.25744146 0.84867197 -0.46203867
		 0.25744146 0.84867197 -0.46203867 0.047895763 0.48629987 0.87247831 0.047895763 0.48629987
		 0.87247831 0.047895763 0.48629987 0.87247831 0.047895763 0.48629987 0.87247831 0.14184833
		 0.46761253 0.87247777 0.14184833 0.46761253 0.87247777 0.14184833 0.46761253 0.87247777
		 0.14184833 0.46761253 0.87247777 0.23035128 0.43095437 0.87247729 0.23035128 0.43095437
		 0.87247729 0.23035128 0.43095437 0.87247729 0.23035128 0.43095437 0.87247729 0.30999839
		 0.37773374 0.87247831 0.30999839 0.37773374 0.87247831 0.30999839 0.37773374 0.87247831
		 0.30999839 0.37773374 0.87247831 0.37773415 0.30999762 0.87247837 0.37773415 0.30999762
		 0.87247837 0.37773415 0.30999762 0.87247837 0.37773415 0.30999762 0.87247837 0.43095246
		 0.23034951 0.87247872 0.43095246 0.23034951 0.87247872 0.43095246 0.23034951 0.87247872
		 0.43095246 0.23034951 0.87247872 0.46761161 0.14184876 0.87247825 0.46761161 0.14184876
		 0.87247825 0.46761161 0.14184876 0.87247825 0.46761161 0.14184876 0.87247825 0.48629847
		 0.047897846 0.87247902 0.48629847 0.047897846 0.87247902 0.48629847 0.047897846 0.87247902
		 0.48629847 0.047897846 0.87247902 0.48630035 -0.047897801 0.87247783 0.48630035 -0.047897801
		 0.87247783 0.48630035 -0.047897801 0.87247783 0.48630035 -0.047897801 0.87247783
		 0.46761289 -0.14184879 0.87247759 0.46761289 -0.14184879 0.87247759 0.46761289 -0.14184879
		 0.87247759 0.46761289 -0.14184879 0.87247759 0.43095395 -0.23034969 0.87247795 0.43095395
		 -0.23034969 0.87247795 0.43095395 -0.23034969 0.87247795 0.43095395 -0.23034969 0.87247795
		 0.37773511 -0.30999878 0.87247747 0.37773511 -0.30999878 0.87247747 0.37773511 -0.30999878
		 0.87247747 0.37773511 -0.30999878 0.87247747 0.30999878 -0.37773478 0.87247759 0.30999878
		 -0.37773478 0.87247759 0.30999878 -0.37773478 0.87247759 0.30999878 -0.37773478 0.87247759
		 0.23034953 -0.43095386 0.87247801 0.23034953 -0.43095386 0.87247801 0.23034953 -0.43095386
		 0.87247801 0.23034953 -0.43095386 0.87247801 0.14184821 -0.46761176 0.87247831 0.14184821
		 -0.46761176 0.87247831;
	setAttr ".n[498:663]" -type "float3"  0.14184821 -0.46761176 0.87247831 0.14184821
		 -0.46761176 0.87247831 0.047897819 -0.48629987 0.87247819 0.047897819 -0.48629987
		 0.87247819 0.047897819 -0.48629987 0.87247819 0.047897819 -0.48629987 0.87247819
		 -0.047897641 -0.48630044 0.87247795 -0.047897641 -0.48630044 0.87247795 -0.047897641
		 -0.48630044 0.87247795 -0.047897641 -0.48630044 0.87247795 -0.14184836 -0.46761227
		 0.87247795 -0.14184836 -0.46761227 0.87247795 -0.14184836 -0.46761227 0.87247795
		 -0.14184836 -0.46761227 0.87247795 -0.23034947 -0.43095419 0.87247777 -0.23034947
		 -0.43095419 0.87247777 -0.23034947 -0.43095419 0.87247777 -0.23034947 -0.43095419
		 0.87247777 -0.30999947 -0.3777352 0.87247717 -0.30999947 -0.3777352 0.87247717 -0.30999947
		 -0.3777352 0.87247717 -0.30999947 -0.3777352 0.87247717 -0.37773311 -0.30999765 0.87247872
		 -0.37773311 -0.30999765 0.87247872 -0.37773311 -0.30999765 0.87247872 -0.37773311
		 -0.30999765 0.87247872 -0.43095231 -0.23034979 0.87247872 -0.43095231 -0.23034979
		 0.87247872 -0.43095231 -0.23034979 0.87247872 -0.43095231 -0.23034979 0.87247872
		 -0.4676117 -0.14184879 0.87247807 -0.4676117 -0.14184879 0.87247807 -0.4676117 -0.14184879
		 0.87247807 -0.4676117 -0.14184879 0.87247807 -0.48630029 -0.047895443 0.87247813
		 -0.48630029 -0.047895443 0.87247813 -0.48630029 -0.047895443 0.87247813 -0.48630029
		 -0.047895443 0.87247813 -0.48629951 0.04789548 0.87247866 -0.48629951 0.04789548
		 0.87247866 -0.48629951 0.04789548 0.87247866 -0.48629951 0.04789548 0.87247866 -0.46761233
		 0.14184862 0.87247783 -0.46761233 0.14184862 0.87247783 -0.46761233 0.14184862 0.87247783
		 -0.46761233 0.14184862 0.87247783 -0.43095246 0.23035069 0.87247843 -0.43095246 0.23035069
		 0.87247843 -0.43095246 0.23035069 0.87247843 -0.43095246 0.23035069 0.87247843 -0.37773365
		 0.30999759 0.87247849 -0.37773365 0.30999759 0.87247849 -0.37773365 0.30999759 0.87247849
		 -0.37773365 0.30999759 0.87247849 -0.30999804 0.37773305 0.87247872 -0.30999804 0.37773305
		 0.87247872 -0.30999804 0.37773305 0.87247872 -0.30999804 0.37773305 0.87247872 -0.23035122
		 0.43095365 0.87247759 -0.23035122 0.43095365 0.87247759 -0.23035122 0.43095365 0.87247759
		 -0.23035122 0.43095365 0.87247759 -0.14184833 0.46761256 0.87247777 -0.14184833 0.46761256
		 0.87247777 -0.14184833 0.46761256 0.87247777 -0.14184833 0.46761256 0.87247777 -0.047895819
		 0.48630026 0.87247813 -0.047895819 0.48630026 0.87247813 -0.047895819 0.48630026
		 0.87247813 -0.047895819 0.48630026 0.87247813 0.086926781 0.88258958 -0.46203831
		 0.086926781 0.88258958 -0.46203831 0.086926781 0.88258958 -0.46203831 0.086926781
		 0.88258958 -0.46203831 0.053898938 0.54724747 -0.83523357 0.053898938 0.54724747
		 -0.83523357 0.053898938 0.54724747 -0.83523357 0.053898938 0.54724747 -0.83523357
		 0.15962666 0.52621746 -0.83523315 0.15962666 0.52621746 -0.83523315 0.15962666 0.52621746
		 -0.83523315 0.15962666 0.52621746 -0.83523315 0.25921902 0.48496509 -0.83523309 0.25921902
		 0.48496509 -0.83523309 0.25921902 0.48496509 -0.83523309 0.25921902 0.48496509 -0.83523309
		 0.34884989 0.42507613 -0.83523297 0.34884989 0.42507613 -0.83523297 0.34884989 0.42507613
		 -0.83523297 0.34884989 0.42507613 -0.83523297 0.42507482 0.34884986 -0.83523357 0.42507482
		 0.34884986 -0.83523357 0.42507482 0.34884986 -0.83523357 0.42507482 0.34884986 -0.83523357
		 0.48496464 0.25921875 -0.83523339 0.48496464 0.25921875 -0.83523339 0.48496464 0.25921875
		 -0.83523339 0.48496464 0.25921875 -0.83523339 0.52621615 0.15962541 -0.83523434 0.52621615
		 0.15962541 -0.83523434 0.52621615 0.15962541 -0.83523434 0.52621615 0.15962541 -0.83523434
		 0.54724652 0.053899541 -0.83523417 0.54724652 0.053899541 -0.83523417 0.54724652
		 0.053899541 -0.83523417 0.54724652 0.053899541 -0.83523417 0.54724663 -0.053899564
		 -0.83523411 0.54724663 -0.053899564 -0.83523411 0.54724663 -0.053899564 -0.83523411
		 0.54724663 -0.053899564 -0.83523411 0.52621615 -0.1596255 -0.83523422 0.52621615
		 -0.1596255 -0.83523422 0.52621615 -0.1596255 -0.83523422 0.52621615 -0.1596255 -0.83523422
		 0.4849647 -0.25921899 -0.83523339 0.4849647 -0.25921899 -0.83523339 0.4849647 -0.25921899
		 -0.83523339 0.4849647 -0.25921899 -0.83523339 0.42507461 -0.34884936 -0.83523387
		 0.42507461 -0.34884936 -0.83523387 0.42507461 -0.34884936 -0.83523387 0.42507461
		 -0.34884936 -0.83523387 0.3488493 -0.42507437 -0.83523411 0.3488493 -0.42507437 -0.83523411
		 0.3488493 -0.42507437 -0.83523411 0.3488493 -0.42507437 -0.83523411 0.25921881 -0.48496473
		 -0.83523345 0.25921881 -0.48496473 -0.83523345 0.25921881 -0.48496473 -0.83523345
		 0.25921881 -0.48496473 -0.83523345 0.15962638 -0.52621669 -0.83523363 0.15962638
		 -0.52621669 -0.83523363 0.15962638 -0.52621669 -0.83523363 0.15962638 -0.52621669
		 -0.83523363 0.053899042 -0.54724836 -0.83523297 0.053899042 -0.54724836 -0.83523297
		 0.053899042 -0.54724836 -0.83523297 0.053899042 -0.54724836 -0.83523297 -0.053899046
		 -0.54724801 -0.83523315 -0.053899046 -0.54724801 -0.83523315 -0.053899046 -0.54724801
		 -0.83523315 -0.053899046 -0.54724801 -0.83523315 -0.15962638 -0.52621675 -0.83523375
		 -0.15962638 -0.52621675 -0.83523375 -0.15962638 -0.52621675 -0.83523375 -0.15962638
		 -0.52621675 -0.83523375 -0.25921875 -0.484965 -0.83523327 -0.25921875 -0.484965 -0.83523327
		 -0.25921875 -0.484965 -0.83523327 -0.25921875 -0.484965 -0.83523327 -0.34884933 -0.425073
		 -0.8352347 -0.34884933 -0.425073 -0.8352347 -0.34884933 -0.425073 -0.8352347 -0.34884933
		 -0.425073 -0.8352347 -0.42507383 -0.34885007 -0.83523399 -0.42507383 -0.34885007
		 -0.83523399 -0.42507383 -0.34885007 -0.83523399 -0.42507383 -0.34885007 -0.83523399
		 -0.48496419 -0.25921795 -0.83523399 -0.48496419 -0.25921795 -0.83523399 -0.48496419
		 -0.25921795 -0.83523399 -0.48496419 -0.25921795 -0.83523399 -0.52621716 -0.15962684
		 -0.83523333 -0.52621716 -0.15962684 -0.83523333 -0.52621716 -0.15962684 -0.83523333
		 -0.52621716 -0.15962684 -0.83523333;
	setAttr ".n[664:703]" -type "float3"  -0.5472483 -0.053898904 -0.83523309 -0.5472483
		 -0.053898904 -0.83523309 -0.5472483 -0.053898904 -0.83523309 -0.5472483 -0.053898904
		 -0.83523309 -0.54724818 0.053898931 -0.83523303 -0.54724818 0.053898931 -0.83523303
		 -0.54724818 0.053898931 -0.83523303 -0.54724818 0.053898931 -0.83523303 -0.52621758
		 0.15962665 -0.83523309 -0.52621758 0.15962665 -0.83523309 -0.52621758 0.15962665
		 -0.83523309 -0.52621758 0.15962665 -0.83523309 -0.484963 0.25921759 -0.83523476 -0.484963
		 0.25921759 -0.83523476 -0.484963 0.25921759 -0.83523476 -0.484963 0.25921759 -0.83523476
		 -0.42507359 0.34884921 -0.83523452 -0.42507359 0.34884921 -0.83523452 -0.42507359
		 0.34884921 -0.83523452 -0.42507359 0.34884921 -0.83523452 -0.34884977 0.42507455
		 -0.83523369 -0.34884977 0.42507455 -0.83523369 -0.34884977 0.42507455 -0.83523369
		 -0.34884977 0.42507455 -0.83523369 -0.25921997 0.48496568 -0.83523244 -0.25921997
		 0.48496568 -0.83523244 -0.25921997 0.48496568 -0.83523244 -0.25921997 0.48496568
		 -0.83523244 -0.15962636 0.52621949 -0.83523196 -0.15962636 0.52621949 -0.83523196
		 -0.15962636 0.52621949 -0.83523196 -0.15962636 0.52621949 -0.83523196 -0.053899094
		 0.5472486 -0.83523279 -0.053899094 0.5472486 -0.83523279 -0.053899094 0.5472486 -0.83523279
		 -0.053899094 0.5472486 -0.83523279 0.098017037 0.99518472 0 0.098017037 0.99518472
		 0 0.098017037 0.99518472 0 0.098017037 0.99518472 0;
	setAttr -s 162 -ch 704 ".fc[0:161]" -type "polyFaces" 
		f 4 0 1 2 3
		mu 0 4 231 214 9 38
		f 4 -3 4 5 6
		mu 0 4 38 9 142 71
		f 4 -6 7 8 9
		mu 0 4 71 142 242 107
		f 4 -9 10 11 12
		mu 0 4 107 242 293 10
		f 4 -12 13 14 15
		mu 0 4 10 293 5 49
		f 4 -15 16 17 18
		mu 0 4 49 5 224 60
		f 4 -18 19 20 21
		mu 0 4 60 224 252 192
		f 4 -21 22 23 24
		mu 0 4 192 252 290 222
		f 4 -24 25 26 27
		mu 0 4 222 290 70 11
		f 4 -27 28 29 30
		mu 0 4 11 70 210 145
		f 4 -30 31 32 33
		mu 0 4 145 210 237 197
		f 4 -33 34 35 36
		mu 0 4 197 237 16 213
		f 4 -36 37 38 39
		mu 0 4 213 16 57 239
		f 4 -39 40 41 42
		mu 0 4 239 57 216 152
		f 4 -42 43 44 45
		mu 0 4 152 216 324 164
		f 4 -45 46 47 48
		mu 0 4 164 324 28 198
		f 4 -48 49 50 51
		mu 0 4 198 28 159 322
		f 4 -51 52 53 54
		mu 0 4 322 159 273 114
		f 4 -54 55 56 57
		mu 0 4 114 273 313 153
		f 4 -57 58 59 60
		mu 0 4 153 313 106 302
		f 4 -60 61 62 63
		mu 0 4 302 106 124 90
		f 4 -63 64 65 66
		mu 0 4 90 124 186 123
		f 4 -66 67 68 69
		mu 0 4 123 186 84 246
		f 4 -69 70 71 72
		mu 0 4 246 84 97 263
		f 4 -72 73 74 75
		mu 0 4 263 97 133 1
		f 4 -75 76 77 78
		mu 0 4 1 133 165 122
		f 4 -78 79 80 81
		mu 0 4 122 165 54 245
		f 4 -81 82 83 84
		mu 0 4 245 54 85 280
		f 4 -84 85 86 87
		mu 0 4 280 85 151 298
		f 4 -87 88 89 90
		mu 0 4 298 151 19 200
		f 4 -32 91 92 93
		mu 0 4 237 210 292 320
		f 4 -90 94 95 96
		mu 0 4 200 19 294 232
		f 4 -96 97 -1 98
		mu 0 4 232 294 13 167
		f 4 -88 99 100 101
		mu 0 4 280 298 135 115
		f 4 -99 102 103 104
		mu 0 4 232 167 201 69
		f 4 -22 105 106 107
		mu 0 4 60 192 21 98
		f 4 -49 108 109 110
		mu 0 4 164 198 31 326
		f 4 -76 111 112 113
		mu 0 4 263 1 169 100
		f 4 -10 114 115 116
		mu 0 4 71 107 272 233
		f 4 -37 117 118 119
		mu 0 4 197 213 52 32
		f 4 -64 120 121 122
		mu 0 4 302 90 154 138
		f 4 -91 123 124 -100
		mu 0 4 298 200 36 135
		f 4 -25 125 126 -106
		mu 0 4 192 222 59 21
		f 4 -52 127 128 -109
		mu 0 4 198 322 161 31
		f 4 -79 129 130 -112
		mu 0 4 1 122 283 169
		f 4 -13 131 132 -115
		mu 0 4 107 10 183 272
		f 4 -40 133 134 -118
		mu 0 4 213 239 83 22
		f 4 -67 135 136 -121
		mu 0 4 90 123 288 154
		f 4 -97 -105 137 -124
		mu 0 4 200 232 69 36
		f 4 -28 138 139 -126
		mu 0 4 222 11 73 59
		f 4 -55 140 141 -128
		mu 0 4 322 114 276 161
		f 4 -82 142 143 -130
		mu 0 4 122 245 86 283
		f 4 -16 144 145 -132
		mu 0 4 10 49 212 183
		f 4 -43 146 147 -134
		mu 0 4 239 152 317 83
		f 4 -70 148 149 -136
		mu 0 4 123 246 88 288
		f 4 -31 150 151 -139
		mu 0 4 11 145 308 73
		f 4 -58 152 153 -141
		mu 0 4 114 153 318 276
		f 4 -85 -102 154 -143
		mu 0 4 245 280 115 86
		f 4 -19 -108 155 -145
		mu 0 4 49 60 225 212
		f 4 -46 -111 156 -147
		mu 0 4 152 164 326 317
		f 4 -73 -114 157 -149
		mu 0 4 246 263 100 88
		f 32 158 159 160 161 162 163 164 165 166 167 168 169 170 171 172 173 174 175 176 177
		 178 179 180 181 182 183 184 185 186 187 188 189
		mu 0 32 68 285 6 92 226 53 171 129 89 253 310 95 150 27 18 325 261 147 271 277 25 81 4
		 56 82 178 43 125 211 234 303 205
		f 4 -7 -117 190 191
		mu 0 4 38 71 233 204
		f 4 -34 -120 192 -151
		mu 0 4 145 197 32 308
		f 4 -61 -123 193 -153
		mu 0 4 153 302 138 45
		f 4 -98 194 195 196
		mu 0 4 13 294 47 126
		f 4 -59 197 198 199
		mu 0 4 106 313 62 196
		f 4 -86 200 201 202
		mu 0 4 151 85 166 229
		f 4 -20 203 204 205
		mu 0 4 252 224 307 7
		f 4 -47 206 207 208
		mu 0 4 28 324 79 113
		f 4 -74 209 210 211
		mu 0 4 133 97 187 215
		f 4 -8 212 213 214
		mu 0 4 242 142 220 0
		f 4 -35 -94 215 216
		mu 0 4 16 237 320 103
		f 4 -62 -200 217 218
		mu 0 4 124 106 196 209
		f 4 -89 -203 219 220
		mu 0 4 19 151 229 105
		f 4 -23 -206 221 222
		mu 0 4 290 252 7 44
		f 4 -50 -209 223 224
		mu 0 4 159 28 113 236
		f 4 -77 -212 225 226
		mu 0 4 165 133 215 243
		f 4 -11 -215 227 228
		mu 0 4 293 242 0 46
		f 4 -38 -217 229 230
		mu 0 4 57 16 103 141
		f 4 -65 -219 231 232
		mu 0 4 186 124 209 259
		f 4 -95 -221 233 -195
		mu 0 4 294 19 105 47
		f 4 -26 -223 234 235
		mu 0 4 70 290 44 155
		f 4 -53 -225 236 237
		mu 0 4 273 159 236 29
		f 4 -80 -227 238 239
		mu 0 4 54 165 243 134
		f 4 -14 -229 240 241
		mu 0 4 5 293 46 91
		f 4 -41 -231 242 243
		mu 0 4 216 57 141 299
		f 4 -68 -233 244 245
		mu 0 4 84 186 259 168
		f 4 -29 -236 246 -92
		mu 0 4 210 70 155 292
		f 4 -56 -238 247 -198
		mu 0 4 313 273 29 62
		f 4 -83 -240 248 -201
		mu 0 4 85 54 134 166
		f 4 -17 -242 249 -204
		mu 0 4 224 5 91 307
		f 4 -44 -244 250 -207
		mu 0 4 324 216 299 79
		f 4 -71 -246 251 -210
		mu 0 4 97 84 168 187
		f 32 252 253 254 255 256 257 258 259 260 261 262 263 264 265 266 267 268 269 270 271
		 272 273 274 275 276 277 278 279 280 281 282 283
		mu 0 32 304 289 221 75 249 102 255 78 72 63 189 162 42 132 15 179 202 117 265 66 173 146
		 180 188 207 108 127 295 77 262 158 314
		f 4 -5 284 285 -213
		mu 0 4 142 9 93 220
		f 4 286 287 -253 288
		mu 0 4 93 96 139 319
		f 4 -286 -289 -284 289
		mu 0 4 220 93 148 20
		f 4 -214 -290 -283 290
		mu 0 4 0 220 181 190
		f 4 -228 -291 -282 291
		mu 0 4 46 0 256 218
		f 4 -241 -292 -281 292
		mu 0 4 91 46 40 270
		f 4 -250 -293 -280 293
		mu 0 4 307 91 74 140
		f 4 -205 -294 -279 294
		mu 0 4 7 307 143 175
		f 4 -222 -295 -278 295
		mu 0 4 44 7 33 275
		f 4 -235 -296 -277 296
		mu 0 4 155 44 247 268
		f 4 -247 -297 -276 297
		mu 0 4 292 155 41 199
		f 4 -93 -298 -275 298
		mu 0 4 320 292 172 250
		f 4 -216 -299 -274 299
		mu 0 4 103 320 30 287
		f 4 -230 -300 -273 300
		mu 0 4 141 103 12 195
		f 4 -243 -301 -272 301
		mu 0 4 299 141 136 208
		f 4 -251 -302 -271 302
		mu 0 4 79 299 182 235
		f 4 -208 -303 -270 303
		mu 0 4 113 79 14 305
		f 4 -224 -304 -269 304
		mu 0 4 236 113 64 321
		f 4 -237 -305 -268 305
		mu 0 4 29 236 131 223
		f 4 -248 -306 -267 306
		mu 0 4 62 29 144 99
		f 4 -199 -307 -266 307
		mu 0 4 196 62 282 35
		f 4 -218 -308 -265 308
		mu 0 4 209 196 94 39
		f 4 -232 -309 -264 309
		mu 0 4 259 209 128 101
		f 4 -245 -310 -263 310
		mu 0 4 168 259 217 279
		f 4 -252 -311 -262 311
		mu 0 4 187 168 87 48
		f 4 -211 -312 -261 312
		mu 0 4 215 187 67 37
		f 4 -226 -313 -260 313
		mu 0 4 243 215 228 3
		f 4 -239 -314 -259 314
		mu 0 4 134 243 238 323
		f 4 -249 -315 -258 315
		mu 0 4 166 134 219 26
		f 4 -202 -316 -257 316
		mu 0 4 229 166 120 191
		f 4 -220 -317 -256 317
		mu 0 4 105 229 170 51
		f 4 -234 -318 -255 318
		mu 0 4 47 105 176 281
		f 4 -196 -319 -254 -288
		mu 0 4 126 47 184 300
		f 4 -2 -197 -287 -285
		mu 0 4 9 214 96 93
		f 4 319 320 -159 321
		mu 0 4 266 204 274 163
		f 4 -191 322 -160 -321
		mu 0 4 204 233 104 174
		f 4 -116 323 -161 -323
		mu 0 4 233 272 118 8
		f 4 -133 324 -162 -324
		mu 0 4 272 183 50 316
		f 4 -146 325 -163 -325
		mu 0 4 183 212 80 65
		f 4 -156 326 -164 -326
		mu 0 4 212 225 296 157
		f 4 -107 327 -165 -327
		mu 0 4 98 21 257 286
		f 4 -127 328 -166 -328
		mu 0 4 21 59 61 55
		f 4 -140 329 -167 -329
		mu 0 4 59 73 267 160
		f 4 -152 330 -168 -330
		mu 0 4 73 308 109 149
		f 4 -193 331 -169 -331
		mu 0 4 308 32 193 269
		f 4 -119 332 -170 -332
		mu 0 4 32 52 248 309
		f 4 -135 333 -171 -333
		mu 0 4 22 83 284 17
		f 4 -148 334 -172 -334
		mu 0 4 83 317 34 203
		f 4 -157 335 -173 -335
		mu 0 4 317 326 240 291
		f 4 -110 336 -174 -336
		mu 0 4 326 31 194 119
		f 4 -129 337 -175 -337
		mu 0 4 31 161 315 177
		f 4 -142 338 -176 -338
		mu 0 4 161 276 185 137
		f 4 -154 339 -177 -339
		mu 0 4 276 318 230 251
		f 4 -194 340 -178 -340
		mu 0 4 45 138 227 76
		f 4 -122 341 -179 -341
		mu 0 4 138 154 24 110
		f 4 -137 342 -180 -342
		mu 0 4 154 288 206 311
		f 4 -150 343 -181 -343
		mu 0 4 288 88 254 258
		f 4 -158 344 -182 -344
		mu 0 4 88 100 2 23
		f 4 -113 345 -183 -345
		mu 0 4 100 169 306 278
		f 4 -131 346 -184 -346
		mu 0 4 169 283 58 111
		f 4 -144 347 -185 -347
		mu 0 4 283 86 116 312
		f 4 -155 348 -186 -348
		mu 0 4 86 115 112 260
		f 4 -101 349 -187 -349
		mu 0 4 115 135 121 297
		f 4 -125 350 -188 -350
		mu 0 4 135 36 301 156
		f 4 -138 351 -189 -351
		mu 0 4 36 69 264 130
		f 4 -104 -322 -190 -352
		mu 0 4 69 201 241 244
		f 4 -4 -192 -320 -103
		mu 0 4 231 38 204 266;
	setAttr ".cd" -type "dataPolyComponent" Index_Data Edge 0 ;
	setAttr ".cvd" -type "dataPolyComponent" Index_Data Vertex 0 ;
	setAttr ".pd[0]" -type "dataPolyComponent" Index_Data UV 0 ;
	setAttr ".hfd" -type "dataPolyComponent" Index_Data Face 0 ;
createNode joint -n "root";
	rename -uid "56CB458C-4CA6-E98D-AE32-72811F4F7F93";
	setAttr ".mnrl" -type "double3" -360 -360 -360 ;
	setAttr ".mxrl" -type "double3" 360 360 360 ;
	setAttr ".bps" -type "matrix" 1 0 0 0 0 1 0 0 0 0 1 0 0 0 0 1;
	setAttr ".radi" 0.98638992743589105;
createNode joint -n "animated_jnt" -p "root";
	rename -uid "DB723E26-413C-14ED-376D-438079AA3DD8";
	addAttr -ci true -sn "liw" -ln "lockInfluenceWeights" -min 0 -max 1 -at "bool";
	setAttr ".uoc" 1;
	setAttr ".mnrl" -type "double3" -360 -360 -360 ;
	setAttr ".mxrl" -type "double3" 360 360 360 ;
	setAttr ".bps" -type "matrix" 1 0 0 0 0 1 0 0 0 0 1 0 0 0 0 1;
	setAttr ".radi" 0.5;
createNode skinCluster -n "skinCluster1";
	rename -uid "462DFBE0-4450-A2D7-468D-F98481619E16";
	setAttr -s 192 ".wl";
	setAttr ".wl[0:191].w"
		1 0 1
		1 0 1
		1 0 1
		1 0 1
		1 0 1
		1 0 1
		1 0 1
		1 0 1
		1 0 1
		1 0 1
		1 0 1
		1 0 1
		1 0 1
		1 0 1
		1 0 1
		1 0 1
		1 0 1
		1 0 1
		1 0 1
		1 0 1
		1 0 1
		1 0 1
		1 0 1
		1 0 1
		1 0 1
		1 0 1
		1 0 1
		1 0 1
		1 0 1
		1 0 1
		1 0 1
		1 0 1
		1 0 1
		1 0 1
		1 0 1
		1 0 1
		1 0 1
		1 0 1
		1 0 1
		1 0 1
		1 0 1
		1 0 1
		1 0 1
		1 0 1
		1 0 1
		1 0 1
		1 0 1
		1 0 1
		1 0 1
		1 0 1
		1 0 1
		1 0 1
		1 0 1
		1 0 1
		1 0 1
		1 0 1
		1 0 1
		1 0 1
		1 0 1
		1 0 1
		1 0 1
		1 0 1
		1 0 1
		1 0 1
		1 0 1
		1 0 1
		1 0 1
		1 0 1
		1 0 1
		1 0 1
		1 0 1
		1 0 1
		1 0 1
		1 0 1
		1 0 1
		1 0 1
		1 0 1
		1 0 1
		1 0 1
		1 0 1
		1 0 1
		1 0 1
		1 0 1
		1 0 1
		1 0 1
		1 0 1
		1 0 1
		1 0 1
		1 0 1
		1 0 1
		1 0 1
		1 0 1
		1 0 1
		1 0 1
		1 0 1
		1 0 1
		1 0 1
		1 0 1
		1 0 1
		1 0 1
		1 0 1
		1 0 1
		1 0 1
		1 0 1
		1 0 1
		1 0 1
		1 0 1
		1 0 1
		1 0 1
		1 0 1
		1 0 1
		1 0 1
		1 0 1
		1 0 1
		1 0 1
		1 0 1
		1 0 1
		1 0 1
		1 0 1
		1 0 1
		1 0 1
		1 0 1
		1 0 1
		1 0 1
		1 0 1
		1 0 1
		1 0 1
		1 0 1
		1 0 1
		1 0 1
		1 0 1
		1 0 1
		1 0 1
		1 0 1
		1 0 1
		1 0 1
		1 0 1
		1 0 1
		1 0 1
		1 0 1
		1 0 1
		1 0 1
		1 0 1
		1 0 1
		1 0 1
		1 0 1
		1 0 1
		1 0 1
		1 0 1
		1 0 1
		1 0 1
		1 0 1
		1 0 1
		1 0 1
		1 0 1
		1 0 1
		1 0 1
		1 0 1
		1 0 1
		1 0 1
		1 0 1
		1 0 1
		1 0 1
		1 0 1
		1 0 1
		1 0 1
		1 0 1
		1 0 1
		1 0 1
		1 0 1
		1 0 1
		1 0 1
		1 0 1
		1 0 1
		1 0 1
		1 0 1
		1 0 1
		1 0 1
		1 0 1
		1 0 1
		1 0 1
		1 0 1
		1 0 1
		1 0 1
		1 0 1
		1 0 1
		1 0 1
		1 0 1
		1 0 1
		1 0 1
		1 0 1
		1 0 1;
	setAttr ".pm[0]" -type "matrix" 1 -0 0 -0 -0 1 -0 0 0 -0 1 -0 -0 0 -0 1;
	setAttr ".gm" -type "matrix" 100 0 0 0 0 -1.6292067961387602e-05 -99.999999999998678 0
		 0 99.999999999998678 -1.6292067961387602e-05 0 0 0 0 1;
	setAttr ".dpf[0]"  1;
	setAttr ".mi" 4;
	setAttr ".ucm" yes;
	setAttr ".wd" 1;
createNode dagPose -n "bindPose1";
	rename -uid "939CDF34-4CF6-130D-0A1B-35BAC3C9DD0F";
	setAttr -s 2 ".wm";
	setAttr -s 2 ".xm";
	setAttr ".xm[0]" -type "matrix" "xform" 1 1 1 0 0 0 0 0 0 0 0 0 0 0 0 0 0 0
		 0 0 0 0 0 0 0 0 0 0 1 0 0 0 1 1 1 1 yes;
	setAttr ".xm[1]" -type "matrix" "xform" 1 1 1 0 0 0 0 0 0 0 0 0 0 0 0 0 0 0
		 0 0 0 0 0 0 0 0 0 0 1 0 0 0 1 1 1 1 yes;
	setAttr -s 2 ".m";
	setAttr -s 2 ".p";
	setAttr -s 2 ".g[0:1]" yes no;
	setAttr ".bp" yes;
select -ne :time1;
	setAttr ".o" 88;
	setAttr ".unw" 88;
select -ne :hardwareRenderingGlobals;
	setAttr ".otfna" -type "stringArray" 22 "NURBS Curves" "NURBS Surfaces" "Polygons" "Subdiv Surface" "Particles" "Particle Instance" "Fluids" "Strokes" "Image Planes" "UI" "Lights" "Cameras" "Locators" "Joints" "IK Handles" "Deformers" "Motion Trails" "Components" "Hair Systems" "Follicles" "Misc. UI" "Ornaments"  ;
	setAttr ".otfva" -type "Int32Array" 22 0 1 1 1 1 1
		 1 1 1 0 0 0 0 0 0 0 0 0
		 0 0 0 0 ;
	setAttr ".fprt" yes;
select -ne :renderPartition;
	setAttr -s 2 ".st";
select -ne :renderGlobalsList1;
select -ne :defaultShaderList1;
	setAttr -s 5 ".s";
select -ne :postProcessList1;
	setAttr -s 2 ".p";
select -ne :defaultRenderingList1;
select -ne :initialShadingGroup;
	setAttr -s 5 ".dsm";
	setAttr ".ro" yes;
select -ne :initialParticleSE;
	setAttr ".ro" yes;
select -ne :defaultRenderGlobals;
	addAttr -ci true -h true -sn "dss" -ln "defaultSurfaceShader" -dt "string";
	setAttr ".dss" -type "string" "lambert1";
select -ne :defaultResolution;
	setAttr ".pa" 1;
select -ne :defaultColorMgtGlobals;
	setAttr ".cfe" yes;
	setAttr ".cfp" -type "string" "<MAYA_RESOURCES>/OCIO-configs/Maya2022-default/config.ocio";
	setAttr ".vtn" -type "string" "ACES 1.0 SDR-video (sRGB)";
	setAttr ".vn" -type "string" "ACES 1.0 SDR-video";
	setAttr ".dn" -type "string" "sRGB";
	setAttr ".wsn" -type "string" "ACEScg";
	setAttr ".otn" -type "string" "ACES 1.0 SDR-video (sRGB)";
	setAttr ".potn" -type "string" "ACES 1.0 SDR-video (sRGB)";
select -ne :hardwareRenderGlobals;
	setAttr ".ctrs" 256;
	setAttr ".btrs" 512;
select -ne :ikSystem;
	setAttr -s 4 ".sol";
connectAttr "skinCluster1.og[0]" "PedestalShape.i";
connectAttr "root.s" "animated_jnt.is";
connectAttr "PedestalShapeOrig.w" "skinCluster1.ip[0].ig";
connectAttr "PedestalShapeOrig.o" "skinCluster1.orggeom[0]";
connectAttr "bindPose1.msg" "skinCluster1.bp";
connectAttr "animated_jnt.wm" "skinCluster1.ma[0]";
connectAttr "animated_jnt.liw" "skinCluster1.lw[0]";
connectAttr "animated_jnt.obcc" "skinCluster1.ifcl[0]";
connectAttr "root.msg" "bindPose1.m[0]";
connectAttr "animated_jnt.msg" "bindPose1.m[1]";
connectAttr "bindPose1.w" "bindPose1.p[0]";
connectAttr "bindPose1.m[0]" "bindPose1.p[1]";
connectAttr "root.bps" "bindPose1.wm[0]";
connectAttr "animated_jnt.bps" "bindPose1.wm[1]";
connectAttr "PedestalShape.iog" ":initialShadingGroup.dsm" -na;
// End of pedestal.ma
